\babel@toc {french}{}\relax 
\contentsline {part}{I\hspace {1em}Lagrangian }{5}{part.1}%
\contentsline {xpart}{Lagrangian }{7}{part.1}%
\contentsline {part}{II\hspace {1em}Soap bubble Problem specification}{7}{part.2}%
\contentsline {xpart}{Soap bubble Problem specification}{9}{part.2}%
\contentsline {section}{\numberline {0.1}Differential equation - PDE}{9}{section.0.1}%
\contentsline {section}{\numberline {0.2}Draw}{9}{section.0.2}%
